^C:\USERS\200122351\SOURCE\REPOS\LS.POINTERS\LS.POINTERS\DEBUG\MAIN.OBJ
C:\USERS\200122351\SOURCE\REPOS\LS.POINTERS\DEBUG\LS.POINTERS.EXE
C:\USERS\200122351\SOURCE\REPOS\LS.POINTERS\DEBUG\LS.POINTERS.ILK
C:\USERS\200122351\SOURCE\REPOS\LS.POINTERS\DEBUG\LS.POINTERS.PDB
